jsonFlickrApi( {
   "photos" : {
      "page" : 1, "pages" : 283266, "perpage" : 3, "total" : "849797", 
      "photo" : [ {"id" : "397677823", "owner" : "28374750@N00", 
      "secret" : "cab3f3db01", "server" : "124", "farm" : 1, "
      title" : "DSC_0026", "ispublic" : 1, "isfriend" : 0, "isfamily" : 0}
      , {
         "id" : "397677820", "owner" : "28374750@N00", 
         "secret" : "f70cf0bb19", "server" : "174", "farm" : 1, 
         "title" : "red flowers", "ispublic" : 1, "isfriend" :
0, "isfamily" : 0}
      , {
         "id" : "397677553", "owner" : "37015070@N00", 
         "secret" : "7329c71748", "server" : "158", "farm" : 1, 
         "title" : "Rose In Vase", "ispublic" : 1, "isfriend" : 0, 
         "isfamily" : 0}
      ]}
   , "stat" : "ok"}
)
            